…
Com os pacotes carregados, já podemos importar os dados e proceder com a construção dos mapas.

# Importar os dados
cursos <- read_sf(dsn = "data-raw/geoft_bho", layer = "geoft_bho_cursodagua")
regioes <- read_sf(dsn = "data-raw/SNIRH_regioes_hidrograficas",
                   layer = "SNIRH_RegioesHidrograficas")
cursos

## Simple feature collection with 310139 features and 11 fields
## geometry type:  MULTILINESTRING
## dimension:      XY
## bbox:           xmin: -79.98304 ymin: -46.00008 xmax: -34.79408 ymax: 11.08189
## epsg (SRID):    NA
## proj4string:    +proj=longlat +ellps=GRS80 +no_defs
## # A tibble: 310,139 x 12
##    WTC_PK  IDCDA COCURSODAG NUDISTBACC NUCOMPCDA NUAREABACC COCDADESAG
##     <dbl>  <dbl> <chr>           <dbl>     <dbl>      <dbl> <chr>     
##  1 108774 108774 895989422       3156.      1.46       1.11 89598942  
##  2  75216  75216 4448            2336.    411.     13545.   444       
##  3 256913 256913 446             1934.    774.     59112.   44        
##  4 256020 256020 4634            2171.    904.     64719.   46        
##  5 202146 202146 46362           2313.    435.     13315.   4636      
##  6  56949  56949 46382584        2750.      2.25      25.8  4638258   
##  7 231970 231970 46387232        2978.      1.60      24.5  463872    
##  8  97603  97603 464             2707.   1428.    289937    46        
##  9  73971  73971 46429546        3393.      1.44      24.3  4642954   
## 10 254764 254764 4644            2867.   1298.    121859    464       
## # … with 310,129 more rows, and 5 more variables: NUNIVOTCDA <int>,
## #   NUORDEMCDA <int>, DEDOMINIAL <chr>, DSVERSAO <chr>,
## #   geometry <MULTILINESTRING [°]>
…
Antes de avançar, vamos limpar as variáveis que não serão usadas e ajustar a projeção, as duas bases estão configuradas com um sistema de referências de coordenadas latlong, então vamos transformar a projeção para UTM, particularmente o CRS Sirgas 2000 / UTM zone 23, cujo código EPSG é 31983.

cursos <- cursos %>% select(COCURSODAG, NUCOMPCDA) %>% st_transform(31983)
regioes <- regioes %>% select(RHI_NM, RHI_CD) %>% st_transform(31983)

cursos

## Simple feature collection with 310139 features and 2 fields
## geometry type:  MULTILINESTRING
## dimension:      XY
## bbox:           xmin: -3658864 ymin: 4604598 xmax: 1632721 ymax: 11408430
## epsg (SRID):    31983
## proj4string:    +proj=utm +zone=23 +south +ellps=GRS80 +towgs84=0,0,0,0,0,0,0 +units=m +no_defs
## # A tibble: 310,139 x 3
##    COCURSODAG NUCOMPCDA                                            geometry
##    <chr>          <dbl>                               <MULTILINESTRING [m]>
##  1 895989422       1.46 ((-694531.9 7967026, -694586.8 7967022, -694712.1 …
##  2 4448          411.   ((-685345.4 8528286, -685204.7 8528983, -685497.7 …
##  3 446           774.   ((-965436.9 8810810, -967588.4 8813286, -967795 88…
##  4 4634          904.   ((-1215932 8539948, -1216812 8539381), (-1489540 9…
##  5 46362         435.   ((-1587682 8843464, -1587188 8844405, -1586754 884…
##  6 46382584        2.25 ((-1806183 8783850, -1806912 8783801, -1807364 878…
##  7 46387232        1.60              ((-1985085 8749397, -1983371 8749524))
##  8 464          1428.   ((-2480176 8541432, -2479726 8541993, -2479224 854…
##  9 46429546        1.44 ((-2292811 8630320, -2293626 8631009, -2294123 863…
## 10 4644         1298.   ((-1990049 8288375, -1989618 8288919), (-1896935 8…
## # … with 310,129 more rows
…
cursos <- cursos %>%
  # Retirar cursos errados e cursos d'água fora do território brasileiro 
  filter(!(COCURSODAG %in% cod), !is.na(RHI_CD)) %>%
  # reunir cursos com RHI corrigida
  rbind(erros)

cursos

## Simple feature collection with 32695 features and 4 fields
## geometry type:  MULTILINESTRING
## dimension:      XY
## bbox:           xmin: -3464271 ymin: 5995277 xmax: 1631304 ymax: 10602470
## epsg (SRID):    NA
## proj4string:    +proj=utm +zone=23 +south +ellps=GRS80 +units=m +no_defs
## # A tibble: 32,695 x 5
##    COCURSODAG NUCOMPCDA RHI_NM    RHI_CD                           geometry
##    <chr>          <dbl> <chr>      <dbl>              <MULTILINESTRING [m]>
##  1 4448            411. AMAZÔNICA      1 ((-685345.4 8528286, -685204.7 85…
##  2 446             774. AMAZÔNICA      1 ((-965436.9 8810810, -967588.4 88…
##  3 4634            904. AMAZÔNICA      1 ((-1215932 8539948, -1216812 8539…
##  4 46362           435. AMAZÔNICA      1 ((-1587682 8843464, -1587188 8844…
##  5 464            1428. AMAZÔNICA      1 ((-2480176 8541432, -2479726 8541…
##  6 466            2081. AMAZÔNICA      1 ((-1540308 7786575, -1539283 7785…
##  7 44             1809. AMAZÔNICA      1 ((-630257.1 9680507, -629848.7 96…
##  8 662             396. TOCANTIN…     11 ((-61088.16 8890133, -61383.08 88…
##  9 678             272. TOCANTIN…     11 ((-141058.7 8810319, -140904.6 88…
## 10 6782            289. TOCANTIN…     11 ((-137854.4 8785644, -137700.1 87…
## # … with 32,685 more rows
…
