…
Então já posso importar os dados:

# importar dados em lista
camadas <- list(
    # raca
  raca = read_ibge("Pessoa03_SP.csv") %>% select(Cod_setor, V002:V006),
  # renda
  renda = read_ibge("PessoaRenda_SP2.csv") %>% select(Cod_setor, V001:V009),
  # setores censitários
  setores = read_geoibge("35SEE250GC_SIR")
  )
camadas

## $raca
## # A tibble: 47,733 x 6
##    Cod_setor V002  V003  V004  V005  V006 
##        <dbl> <chr> <chr> <chr> <chr> <chr>
##  1   3.50e14 249   3     28    24    0    
##  2   3.50e14 550   13    86    136   0    
##  3   3.50e14 432   3     65    24    0    
##  4   3.50e14 613   8     63    111   0    
##  5   3.50e14 744   4     31    33    1    
##  6   3.50e14 740   4     52    71    0    
##  7   3.50e14 438   13    15    96    0    
##  8   3.50e14 656   17    41    112   1    
##  9   3.50e14 424   20    7     113   0    
## 10   3.50e14 465   11    2     256   1    
## # … with 47,723 more rows
## 
## $renda
## # A tibble: 47,733 x 10
##    Cod_setor V001  V002  V003  V004  V005  V006  V007  V008  V009 
##        <dbl> <chr> <chr> <chr> <chr> <chr> <chr> <chr> <chr> <chr>
##  1   3.50e14 0     43    63    33    47    34    4     3     4    
##  2   3.50e14 10    135   168   78    83    56    10    9     2    
##  3   3.50e14 0     57    94    45    79    61    16    22    3    
##  4   3.50e14 8     122   125   78    83    88    16    10    12   
##  5   3.50e14 5     133   179   74    98    55    5     8     7    
##  6   3.50e14 11    147   175   90    84    65    8     9     3    
##  7   3.50e14 15    159   118   46    24    22    1     2     2    
##  8   3.50e14 26    152   172   90    87    42    4     2     1    
##  9   3.50e14 10    109   156   41    49    13    2     3     0    
## 10   3.50e14 14    160   217   48    20    15    2     1     0    
## # … with 47,723 more rows
## 
## $setores
## Simple feature collection with 68296 features and 13 fields
## geometry type:  MULTIPOLYGON
## dimension:      XY
## bbox:           xmin: -335491.8 ymin: 7196857 xmax: 586149.1 ymax: 7803609
## epsg (SRID):    31983
## proj4string:    +proj=utm +zone=23 +south +ellps=GRS80 +towgs84=0,0,0,0,0,0,0 +units=m +no_defs
## # A tibble: 68,296 x 14
##       ID CD_GEOCODI TIPO  CD_GEOCODB NM_BAIRRO CD_GEOCODS NM_SUBDIST
##    <dbl> <chr>      <chr> <chr>      <chr>     <chr>      <chr>     
##  1 67103 350280405… URBA… <NA>       <NA>      350280405… <NA>      
##  2 67104 350280405… URBA… <NA>       <NA>      350280405… <NA>      
##  3 67105 350280405… URBA… <NA>       <NA>      350280405… <NA>      
##  4 67106 350280405… URBA… <NA>       <NA>      350280405… <NA>      
##  5 67107 350280405… URBA… <NA>       <NA>      350280405… <NA>      
##  6 67108 350280405… URBA… <NA>       <NA>      350280405… <NA>      
##  7 67109 350280405… URBA… <NA>       <NA>      350280405… <NA>      
##  8 67110 350280405… URBA… <NA>       <NA>      350280405… <NA>      
##  9 67111 350280405… URBA… <NA>       <NA>      350280405… <NA>      
## 10 67112 350280405… URBA… <NA>       <NA>      350280405… <NA>      
## # … with 68,286 more rows, and 7 more variables: CD_GEOCODD <chr>,
## #   NM_DISTRIT <chr>, CD_GEOCODM <chr>, NM_MUNICIP <chr>, NM_MICRO <chr>,
## #   NM_MESO <chr>, geometry <MULTIPOLYGON [m]>
…
# checar dados
camadas$setores

## Simple feature collection with 130 features and 11 fields
## geometry type:  MULTIPOLYGON
## dimension:      XY
## bbox:           xmin: 284871.1 ymin: 7294947 xmax: 307339.1 ymax: 7330827
## epsg (SRID):    31983
## proj4string:    +proj=utm +zone=23 +south +ellps=GRS80 +towgs84=0,0,0,0,0,0,0 +units=m +no_defs
## # A tibble: 130 x 12
##    CD_GEOCODI brancos pretos amarelos pardos indigenas classeA classeB
##    <chr>        <dbl>  <dbl>    <dbl>  <dbl>     <dbl>   <dbl>   <dbl>
##  1 353760205…     424      5       31     33         0      24      51
##  2 353760205…     154      5        2     41         0       4      23
##  3 353760205…     125      1       33      7         0       4       8
##  4 353760205…     333     13       17     82         0       6      27
##  5 353760205…     267      9       27     86         0       9      21
##  6 353760205…     268     26       15    110         0       1       8
##  7 353760205…     257     13       10     31         0       6      17
##  8 353760205…     338     12       17     81         0      10      35
##  9 353760205…     448     10       23     87         0      12      47
## 10 353760205…     434      4        8     41         0      10      43
## # … with 120 more rows, and 4 more variables: classeC <dbl>,
## #   classeD <dbl>, classeE <dbl>, geometry <MULTIPOLYGON [m]>
…
## 5  353760205000008  Classe A POINT (297394.4 7309465)
## 6  353760205000008  Classe A POINT (297426.5 7309398)
## 7  353760205000009  Classe A POINT (297282.1 7310019)
## 8  353760205000009  Classe A POINT (297373.4 7309870)
## 9  353760205000009  Classe A   POINT (297687 7309750)
## 10 353760205000009  Classe A POINT (297624.6 7309765)
## 
## $setores
## Simple feature collection with 130 features and 11 fields
## geometry type:  MULTIPOLYGON
## dimension:      XY
## bbox:           xmin: 284871.1 ymin: 7294947 xmax: 307339.1 ymax: 7330827
## epsg (SRID):    31983
## proj4string:    +proj=utm +zone=23 +south +ellps=GRS80 +towgs84=0,0,0,0,0,0,0 +units=m +no_defs
## # A tibble: 130 x 12
##    CD_GEOCODI brancos pretos amarelos pardos indigenas classeA classeB
##    <chr>        <dbl>  <dbl>    <dbl>  <dbl>     <dbl>   <dbl>   <dbl>
##  1 353760205…     424      5       31     33         0      24      51
##  2 353760205…     154      5        2     41         0       4      23
##  3 353760205…     125      1       33      7         0       4       8
##  4 353760205…     333     13       17     82         0       6      27
##  5 353760205…     267      9       27     86         0       9      21
##  6 353760205…     268     26       15    110         0       1       8
##  7 353760205…     257     13       10     31         0       6      17
##  8 353760205…     338     12       17     81         0      10      35
##  9 353760205…     448     10       23     87         0      12      47
## 10 353760205…     434      4        8     41         0      10      43
## # … with 120 more rows, and 4 more variables: classeC <dbl>,
## #   classeD <dbl>, classeE <dbl>, geometry <MULTIPOLYGON [m]>
…
